﻿# Anbennar - added anbennar specifics

ig_devout = {
	color = hsv{ 0.50 0.30 0.67 }
	texture = "gfx/interface/icons/ig_icons/devout.dds"
	layer = "revolution_dynamic_devout"
	index = 1

	ideologies = {
		ideology_pious
		ideology_moralist
		ideology_patriarchal
	}

	enable = {
		always = yes
	}

	# Deprecated; use on_enable effect to assign traits instead
	traits = {
		ig_trait_be_fruitful_and_multiply
		ig_trait_divine_right
		ig_trait_pious_fiction
	}

	on_enable = {
		ig:ig_devout = {
			set_ig_trait = ig_trait:ig_trait_pious_fiction
			set_ig_trait = ig_trait:ig_trait_divine_right
			set_ig_trait = ig_trait:ig_trait_be_fruitful_and_multiply
		}
		
		### Specific

		### Specific - Anbennar
		# Ravelian Rectorate rename
		else_if = {
			limit = {
				c:A33 ?= this
				country_has_state_religion = rel:ravelian
			}
			ig:ig_devout = {
				set_interest_group_name = ig_rectorate
				remove_ideology = ideology_moralist
				add_ideology = ideology_ravelian_moralist
			}
		}
		# Ravelian
		if = {
			limit = {
				country_has_state_religion = rel:ravelian
		
			}
			ig:ig_devout = {
				set_interest_group_name = ig_ravelian_church
				remove_ideology = ideology_moralist
				add_ideology = ideology_ravelian_moralist
			}
		}
		# Corinite
		else_if = {
			limit = {
				country_has_state_religion = rel:corinite
			}
			ig:ig_devout = {
				set_interest_group_name = ig_corinite_faithful
				remove_ideology = ideology_moralist
				add_ideology = ideology_corinite_moralist
				remove_ideology = ideology_patriarchal
				add_ideology = ideology_feminist_ig
				add_ideology = ideology_anti_slavery
			}
		}
		# Regent Court Neratica
		else_if = {
			limit = {
				c:B27 ?= this	#Neratica
				country_has_state_religion = rel:regent_court
			
			}
			ig:ig_devout = {
				set_interest_group_name = ig_neratic_temple
				remove_ideology = ideology_moralist
				add_ideology = ideology_adeanic_moralist
			}
		}
		# Regent Court Adeanic
		else_if = {
			limit = {
				country_has_state_religion = rel:regent_court
			}
			ig:ig_devout = {
				set_interest_group_name = ig_adeanic_temples
				remove_ideology = ideology_moralist
				add_ideology = ideology_adeanic_moralist
			}
		}
	}
	on_disable = {}
	on_character_ig_membership = {
		change_character_religion = scope:interest_group.owner.religion
	}


	pop_potential = {
		has_state_religion = yes
	}

	pop_weight = {
		value = 25

		add = {
			desc = "POP_CLERGYMEN"
			if = {
				limit = {
					is_pop_type = clergymen
				}
				value = 200
			}
		}

		add = {
			desc = "POP_PEASANTS"
			if = {
				limit = {
					is_pop_type = peasants
				}
				value = 100
			}
		}

		add = {
			desc = "LITERACY_50_60"

			if = {
				limit = {
					NOT = {
						is_pop_type = clergymen
					}
					literacy_rate >= 0.50
					literacy_rate < 0.60
				}
				add = -2
			}
		}

		add = {
			desc = "LITERACY_60_70"

			if = {
				limit = {
					NOT = {
						is_pop_type = clergymen
					}
					literacy_rate >= 0.60
					literacy_rate < 0.70
				}
				add = -4
			}
		}

		add = {
			desc = "LITERACY_70_80"

			if = {
				limit = {
					NOT = {
						is_pop_type = clergymen
					}
					literacy_rate >= 0.70
					literacy_rate < 0.80
				}
				add = -6
			}
		}

		add = {
			desc = "LITERACY_80_90"

			if = {
				limit = {
					NOT = {
						is_pop_type = clergymen
					}
					literacy_rate >= 0.80
					literacy_rate < 0.90
				}
				add = -8
			}
		}

		add = {
			desc = "LITERACY_90_100"

			if = {
				limit = {
					NOT = {
						is_pop_type = clergymen
					}
					literacy_rate >= 0.90
				}
				add = -10
			}
		}

		multiply = {
			desc = "LEADER_POPULARITY"
			scope:interest_group = {
				leader ?= {
					value = popularity
					multiply = 0.0025
					add = 1
					max = 1.25
					min = 0.75
				}
			}
		}

		if = {
			limit = {
				scope:interest_group = {
					is_in_government = yes
				}
			}
			multiply = {
				desc = "IN_GOVERNMENT_ATTRACTION"
				value = 1
				add = scope:interest_group.modifier:interest_group_in_government_attraction_mult
				min = 0
			}
		}


		if = {
			limit = {
				owner = {
					has_law = law_type:law_state_atheism
				}
			}
			multiply = {
				desc = "STATE_ATHEISM_LAW"
				value = 0.1
			}
		}
	}

	monarch_weight = {
		value = 1.0
		# Monarch is not likely to adopt a marginal IG
		if = {
			limit = {
				is_marginal = yes
			}
			multiply = {
				value = 0.1
			}
		}
		# Monarch is more likely to adopt a Powerful IG
		if = {
			limit = {
				is_powerful = yes
			}
			multiply = {
				value = 2
			}
		}
		# More likely with State Religion
		if = {
			limit = {
				owner = {
					has_law = law_type:law_state_religion
				}
			}
			multiply = {
				value = 2
			}
		}
		# Less likely without State Religion
		if = {
			limit = {
				owner = {
					NOT = { has_law = law_type:law_state_religion }
				}
			}
			multiply = {
				value = 0.25
			}
		}
		# Basically impossible with State Atheism
		if = {
			limit = {
				owner = {
					has_law = law_type:law_state_atheism
				}
			}
			multiply = {
				value = 0
			}
		}
		# Muslims and Theravada more likely to adopt Devout
		if = {
			limit = {
				OR = {
					owner.religion = rel:sunni
					owner.religion = rel:shiite
					owner.religion = rel:theravada
				}
			}
			multiply = 2
		}
	}

	agitator_weight = {
		# Agitators more likely to come from populist IG's rather than elitist
		value = 0.5
		# Agitators will never be part of a marginalized IG
		if = {
			limit = {
				owner.ig:ig_devout = {
					is_marginal = yes
				}
			}
			multiply = {
				value = 0
			}
		}
	}

	commander_weight = {
		value = 1.0
	}

	noble_chance = {
		value = 0.5
	}

	female_commander_chance = {
		value = 0.0
	}

	female_politician_chance = {
		value = 0.0

		if = {
			limit = {
				owner = {
					has_law = law_type:law_womens_suffrage
				}

			}
			add = {
				value = 0.01
			}
		}
	}

	female_agitator_chance = {
		value = 0.01
		
		if = {
			limit = {
				owner = {
					has_law = law_type:law_women_own_property
				}

			}
			add = {
				value = 0.01
			}
		}	
		
		if = {
			limit = {
				owner = {
					has_law = law_type:law_women_in_the_workplace
				}

			}
			add = {
				value = 0.01
			}
		}

		if = {
			limit = {
				owner = {
					has_law = law_type:law_womens_suffrage
				}

			}
			add = {
				value = 0.01
			}
		}		
	}

	# The chance that a commander belonging to this IG takes over leadership when it changes
	# scope:character is the most popular commander in the IG
	commander_leader_chance = {
		value = 0.25
		if = {
			limit = {
				exists = scope:character
			}
			multiply = {
				value = 1
				add = scope:character.popularity
				min = 0
			}
		}
	}
}