﻿ig_landowners = {
	color = hsv{ 0.63 0.40 0.69 }
	texture = "gfx/interface/icons/ig_icons/landowners.dds"
	layer = "revolution_dynamic_landowners"
	index = 4

	ideologies = {
		ideology_paternalistic
		ideology_stratocratic
		ideology_patriarchal
	}

	enable = {
		always = yes
	}

	# Deprecated; use on_enable effect to assign traits instead
	traits = {
		ig_trait_noblesse_oblige
		ig_trait_family_ties
		ig_trait_noble_privileges
	}

	on_enable = {
		ig:ig_landowners = {
			set_ig_trait = ig_trait:ig_trait_noble_privileges
			set_ig_trait = ig_trait:ig_trait_family_ties
			set_ig_trait = ig_trait:ig_trait_noblesse_oblige
		}
		# Ravelian Rectorate Paternalistic
		if = {
			limit = {
				c:A33 ?= this
			}
			ig:ig_landowners = {
				remove_ideology = ideology_paternalistic
				add_ideology = ideology_rectorate_paternalistic
			}
		}
		# Elven Havenist
		else_if = {
			limit = {
				OR = {
					c:A20 ?= this	#Ibevar
					c:A44 ?= this	#Moonhaven
					c:A65 ?= this	#Redglades
					c:A79 ?= this	#Cyranvar - can be changed in future to have their own
				}
			}
			ig:ig_landowners = {
				set_interest_group_name = ig_haven_elders
				remove_ideology = ideology_paternalistic
				add_ideology = ideology_elven_havenist
			}
		}
		# Greentide Adventurers
		else_if = {
			limit = {
				OR = {
					c:A22 ?= this #Ancardia
					c:A24 ?= this #Newshire
					c:A25 ?= this #Araionn
					c:A26 ?= this #Wyvernheart
					c:A27 ?= this #Blademarches
					c:A28 ?= this #Rosande
					c:A30 ?= this #Magocratic Demesne
				}
			}
			ig:ig_landowners = {
				remove_ideology = ideology_stratocratic
				add_ideology = ideology_greentide_adventurers
			}
		}
		# Magocratic Paternalistic
		else_if = {
			limit = {
				OR = {
					c:A30 ?= this #Magocratic Demesne
				}
			}
			ig:ig_landowners = {
				remove_ideology = ideology_paternalistic
				add_ideology = ideology_magocratic_paternalistic
			}
		}
		# Anbennar Baronite
		else_if = {
			limit = {
				OR = {
					c:A01 ?= this #Anbennar
				}
			}
			ig:ig_landowners = {
				set_interest_group_name = ig_baronites
				remove_ideology = ideology_paternalistic
				add_ideology = ideology_baronites_paternalistic
			}
		}
		else_if = {
			limit = {
				OR = {
					c:B49 ?= this #Dragon Dominion
				}
			}
			ig:ig_landowners = {
				set_interest_group_name = ig_dragonblooded_nobility
			}
		}
		else_if = {
			limit = {
				OR = {
					c:A04 ?= this
					c:B07 ?= this
				}
			}
			ig:ig_landowners = {
				remove_ideology = ideology_paternalistic
				add_ideology = ideology_republican_paternalistic
			}
		}
		else_if = {
			limit = {
				OR = {
					country_has_primary_culture = cu:concordian
					country_has_primary_culture = cu:zanlibi
					country_has_primary_culture = cu:towerfoot_halfling
					country_has_primary_culture = cu:valorborn
				}
			}
			ig:ig_landowners = {
				set_interest_group_name = ig_planter_gentry
				remove_ideology = ideology_paternalistic
				add_ideology = ideology_republican_paternalistic
			}
		}
	}
	on_disable = {}
	on_character_ig_membership = {}

	pop_potential = {
		OR = {
			is_pop_type = aristocrats
			is_pop_type = clergymen
			is_pop_type = officers
			is_pop_type = farmers
			is_pop_type = adventurers	#anbennar. they are able to go in all, even these guys. think elite snobby rich ones
		}		
	}

	pop_weight = {
		value = 0

		add = {
			desc = "POP_ARISTOCRATS"
			if = {
				limit = {
					is_pop_type = aristocrats
				}
				value = 250
			}
		}

		add = {
			desc = "POP_CLERGYMEN"
			if = {
				limit = {
					is_pop_type = clergymen
				}
				value = 50
			}
		}

		add = {
			desc = "POP_OFFICERS"
			if = {
				limit = {
					is_pop_type = officers
				}
				value = 50
			}
		}

		add = {
			desc = "POP_FARMERS"
			if = {
				limit = {
					is_pop_type = farmers
				}
				value = 50
				
				if = {
					limit = { owner = { has_law = law_type:law_homesteading } }
					add = 50
				}
			}
		}

		multiply = {
			desc = "LEADER_POPULARITY"
			scope:interest_group = {
				leader ?= {
					value = popularity
					multiply = 0.0025
					add = 1
					max = 1.25
					min = 0.75
				}
			}
		}
		if = {
			limit = {
				scope:interest_group = {
					is_in_government = yes
				}
			}
			multiply = {
				desc = "IN_GOVERNMENT_ATTRACTION"
				value = 1
				add = scope:interest_group.modifier:interest_group_in_government_attraction_mult
				min = 0
			}
		}
	}

	monarch_weight = {
		value = 1.5 # inherently likely
		# Monarch is not likely to adopt a marginal IG
		if = {
			limit = {
				is_marginal = yes
			}
			multiply = {
				value = 0.1
			}
		}
		# Monarch is more likely to adopt a Powerful IG
		if = {
			limit = {
				is_powerful = yes
			}
			multiply = {
				value = 2
			}
		}
		# More likely with Serfdom or Slavery
		if = {
			limit = {
				owner = {
					OR = {
						has_law = law_type:law_serfdom
						has_law = law_type:law_slave_trade
						has_law = law_type:law_legacy_slavery
					}
				}
			}
			multiply = {
				value = 2
			}
		}
		# More likely with Autocracy, Oligarchy, or Landed Voting
		if = {
			limit = {
				owner = {
					OR = {
						has_law = law_type:law_oligarchy
						has_law = law_type:law_autocracy
						has_law = law_type:law_landed_voting
					}
				}
			}
			multiply = {
				value = 2
			}
		}
	}

	agitator_weight = {
		# Agitators more likely to come from populist IG's rather than elitist
		value = 0.25
		# Agitators will never be part of a marginalized IG
		if = {
			limit = {
				owner.ig:ig_landowners = {
					is_marginal = yes
				}
			}
			multiply = {
				value = 0
			}
		}
	}

	commander_weight = {
		value = 2.0
	}

	noble_chance = {
		value = 1.0
	}

	female_commander_chance = {
		value = 0.0
	}

	female_politician_chance = {
		value = 0.0

		if = {
			limit = {
				owner = {
					has_law = law_type:law_womens_suffrage
				}

			}
			add = {
				value = 0.01
			}
		}
	}

	female_agitator_chance = {
		value = 0.01
		
		if = {
			limit = {
				owner = {
					has_law = law_type:law_women_own_property
				}

			}
			add = {
				value = 0.01
			}
		}	
		
		if = {
			limit = {
				owner = {
					has_law = law_type:law_women_in_the_workplace
				}

			}
			add = {
				value = 0.01
			}
		}

		if = {
			limit = {
				owner = {
					has_law = law_type:law_womens_suffrage
				}

			}
			add = {
				value = 0.01
			}
		}		
	}

	# The chance that a commander belonging to this IG takes over leadership when it changes
	# scope:character is the most popular commander in the IG
	commander_leader_chance = {
		value = 0.5
		if = {
			limit = {
				exists = scope:character
			}
			multiply = {
				value = 1
				add = scope:character.popularity
				min = 0
			}
		}
	}
}