﻿object={
	name="rainforest_sparse_generator_3_0"
	clamp_to_water_level=no
	render_under_water=no
	generated_content=yes
	layer="semidynamic_high"
	pdxmesh="tree_rainforest_001_mesh"
	count=116
	transform="5691.739258 0.000000 2207.397217 0.000000 0.472327 0.000000 0.881423 0.199855 0.199855 0.199855
5690.270996 0.000000 2211.224365 0.000000 0.205138 0.000000 0.978733 0.211499 0.211499 0.211499
5684.916016 0.000000 2210.253662 0.000000 0.151000 0.000000 0.988534 0.206598 0.206598 0.206598
5678.953613 0.000000 2256.290283 0.000000 0.308753 0.000000 0.951142 0.220392 0.220392 0.220392
5757.145996 0.000000 2244.569824 0.000000 0.175298 0.000000 0.984515 0.238825 0.238825 0.238825
5735.998535 0.000000 2226.316406 0.000000 0.126839 0.000000 0.991923 0.255695 0.255695 0.255695
5777.688477 0.000000 2231.117432 0.000000 0.493164 0.000000 0.869936 0.216821 0.216821 0.216821
5788.436523 0.000000 2219.493408 0.000000 0.558780 0.000000 0.829316 0.232780 0.232780 0.232780
5787.236816 0.000000 2220.377441 0.000000 0.326467 0.000000 0.945209 0.236813 0.236813 0.236813
5869.747070 0.000000 2251.582275 0.000000 0.291857 0.000000 0.956462 0.196851 0.196851 0.196851
5949.039062 0.000000 2108.262939 0.000000 0.369991 0.000000 0.929035 0.229959 0.229959 0.229959
5934.722168 0.000000 2137.733398 0.000000 0.497369 0.000000 0.867539 0.279942 0.279942 0.279942
5946.264648 0.000000 2140.559814 0.000000 0.205766 0.000000 0.978601 0.256848 0.256848 0.256848
5936.248535 0.000000 2143.727295 0.000000 0.521768 0.000000 0.853087 0.281708 0.281708 0.281708
5943.916992 0.000000 2140.088379 0.000000 0.111178 0.000000 0.993800 0.272128 0.272128 0.272128
5948.564941 0.000000 2140.291504 0.000000 0.533417 0.000000 0.845852 0.265926 0.265926 0.265926
5964.083496 0.000000 2135.435791 0.000000 0.087386 0.000000 0.996175 0.189631 0.189631 0.189631
5988.144531 0.000000 2138.883301 0.000000 0.262298 0.000000 0.964987 0.194118 0.194118 0.194118
5965.317383 0.000000 2143.149170 0.000000 0.570261 0.000000 0.821464 0.215622 0.215622 0.215622
5963.583008 0.000000 2136.866699 0.000000 0.402500 0.000000 0.915420 0.235790 0.235790 0.235790
5953.144043 0.000000 2115.376221 0.000000 0.027806 0.000000 0.999613 0.240309 0.240309 0.240309
6067.308594 0.000000 2105.096924 0.000000 0.268905 0.000000 0.963167 0.275200 0.275200 0.275200
5996.083496 0.000000 2166.467285 0.000000 0.511325 0.000000 0.859388 0.193185 0.193185 0.193185
6002.750488 0.000000 2186.959473 0.000000 0.062065 0.000000 0.998072 0.197051 0.197051 0.197051
6003.561035 0.000000 2172.668213 0.000000 0.222927 0.000000 0.974835 0.202773 0.202773 0.202773
6015.825195 0.000000 2159.658936 0.000000 0.550210 0.000000 0.835026 0.207735 0.207735 0.207735
6004.072754 0.000000 2194.909424 0.000000 0.241915 0.000000 0.970297 0.203429 0.203429 0.203429
6012.104492 0.000000 2200.060059 0.000000 0.262558 0.000000 0.964916 0.217458 0.217458 0.217458
5998.867676 0.000000 2176.865967 0.000000 0.163986 0.000000 0.986463 0.209653 0.209653 0.209653
5979.133789 0.000000 2149.936523 0.000000 0.377285 0.000000 0.926097 0.218122 0.218122 0.218122
5966.035156 0.000000 2172.406006 0.000000 0.174595 0.000000 0.984640 0.217569 0.217569 0.217569
5985.762207 0.000000 2168.304199 0.000000 0.275620 0.000000 0.961267 0.217588 0.217588 0.217588
6007.433594 0.000000 2167.609375 0.000000 0.338053 0.000000 0.941127 0.226631 0.226631 0.226631
6010.873047 0.000000 2162.155029 0.000000 0.070895 0.000000 0.997484 0.223279 0.223279 0.223279
6007.696777 0.000000 2155.692139 0.000000 0.524431 0.000000 0.851453 0.233846 0.233846 0.233846
6014.147949 0.000000 2191.361084 0.000000 0.581346 0.000000 0.813657 0.225451 0.225451 0.225451
6009.981445 0.000000 2152.033691 0.000000 0.320940 0.000000 0.947099 0.232339 0.232339 0.232339
6011.628418 0.000000 2190.081787 0.000000 0.582164 0.000000 0.813071 0.282437 0.282437 0.282437
6006.683594 0.000000 2176.968018 0.000000 0.554953 0.000000 0.831882 0.282744 0.282744 0.282744
6001.067871 0.000000 2150.935303 0.000000 0.340562 0.000000 0.940222 0.276637 0.276637 0.276637
6007.424805 0.000000 2170.675293 0.000000 0.491861 0.000000 0.870674 0.229916 0.229916 0.229916
6008.930664 0.000000 2158.806396 0.000000 0.200441 0.000000 0.979706 0.273854 0.273854 0.273854
6007.950684 0.000000 2184.590332 0.000000 0.401781 0.000000 0.915736 0.260302 0.260302 0.260302
5971.222656 0.000000 2188.239258 0.000000 0.290662 0.000000 0.956826 0.277353 0.277353 0.277353
6000.161133 0.000000 2185.755371 0.000000 0.169007 0.000000 0.985615 0.269886 0.269886 0.269886
6004.968750 0.000000 2178.153809 0.000000 0.324310 0.000000 0.945951 0.251380 0.251380 0.251380
6002.113770 0.000000 2192.161621 0.000000 0.543198 0.000000 0.839604 0.236109 0.236109 0.236109
6008.005371 0.000000 2152.513428 0.000000 0.235194 0.000000 0.971948 0.231342 0.231342 0.231342
6013.613770 0.000000 2172.977295 0.000000 0.491190 0.000000 0.871052 0.238924 0.238924 0.238924
5991.150391 0.000000 2199.785400 0.000000 0.579516 0.000000 0.814961 0.282983 0.282983 0.282983
6010.833496 0.000000 2165.815430 0.000000 0.444563 0.000000 0.895748 0.278798 0.278798 0.278798
5953.375488 0.000000 2148.798340 0.000000 0.429329 0.000000 0.903148 0.280146 0.280146 0.280146
6014.358398 0.000000 2153.278076 0.000000 0.504784 0.000000 0.863246 0.281159 0.281159 0.281159
6014.436523 0.000000 2156.928467 0.000000 0.295748 0.000000 0.955266 0.258665 0.258665 0.258665
5942.255859 0.000000 2211.650635 0.000000 0.469963 0.000000 0.882686 0.200854 0.200854 0.200854
5913.909180 0.000000 2219.976807 0.000000 0.104186 0.000000 0.994558 0.217846 0.217846 0.217846
5922.377441 0.000000 2246.617920 0.000000 0.359509 0.000000 0.933142 0.229343 0.229343 0.229343
5925.886230 0.000000 2249.062256 0.000000 0.179383 0.000000 0.983779 0.233595 0.233595 0.233595
5915.559082 0.000000 2238.780029 0.000000 0.574430 0.000000 0.818554 0.231972 0.231972 0.231972
5927.743652 0.000000 2238.631104 0.000000 0.485523 0.000000 0.874224 0.235350 0.235350 0.235350
5929.405762 0.000000 2240.743408 0.000000 0.547577 0.000000 0.836756 0.275082 0.275082 0.275082
5922.136719 0.000000 2231.014404 0.000000 0.429955 0.000000 0.902850 0.269514 0.269514 0.269514
5949.552246 0.000000 2212.203857 0.000000 0.462187 0.000000 0.886782 0.279176 0.279176 0.279176
5944.008301 0.000000 2245.139893 0.000000 0.087989 0.000000 0.996121 0.256064 0.256064 0.256064
5944.073242 0.000000 2242.329346 0.000000 0.325468 0.000000 0.945553 0.259117 0.259117 0.259117
5958.724121 0.000000 2236.398193 0.000000 0.351371 0.000000 0.936236 0.191771 0.191771 0.191771
6000.746582 0.000000 2206.128174 0.000000 0.027179 0.000000 0.999631 0.189402 0.189402 0.189402
6000.914551 0.000000 2220.074219 0.000000 0.202883 0.000000 0.979203 0.201617 0.201617 0.201617
5957.351074 0.000000 2241.016602 0.000000 0.466348 0.000000 0.884601 0.206923 0.206923 0.206923
5957.431641 0.000000 2213.667236 0.000000 0.114784 0.000000 0.993391 0.217466 0.217466 0.217466
5956.588867 0.000000 2212.528076 0.000000 0.183854 0.000000 0.982953 0.218147 0.218147 0.218147
5991.339844 0.000000 2204.473145 0.000000 0.539042 0.000000 0.842279 0.258579 0.258579 0.258579
5979.442383 0.000000 2211.313477 0.000000 0.112251 0.000000 0.993680 0.232338 0.232338 0.232338
5957.108887 0.000000 2252.523193 0.000000 0.341001 0.000000 0.940063 0.228638 0.228638 0.228638
5968.268066 0.000000 2215.168701 0.000000 0.410834 0.000000 0.911710 0.230936 0.230936 0.230936
5952.489258 0.000000 2234.312744 0.000000 0.087696 0.000000 0.996147 0.271677 0.271677 0.271677
5988.343262 0.000000 2209.431885 0.000000 0.089305 0.000000 0.996004 0.266735 0.266735 0.266735
6079.958008 0.000000 2167.305176 0.000000 0.220730 0.000000 0.975335 0.191350 0.191350 0.191350
6051.200195 0.000000 2159.203125 0.000000 0.136590 0.000000 0.990628 0.190156 0.190156 0.190156
6035.443848 0.000000 2196.325928 0.000000 0.276627 0.000000 0.960977 0.192219 0.192219 0.192219
6070.609375 0.000000 2174.254883 0.000000 0.108461 0.000000 0.994101 0.215469 0.215469 0.215469
6017.323730 0.000000 2152.463623 0.000000 0.069498 0.000000 0.997582 0.232796 0.232796 0.232796
6041.172852 0.000000 2182.920898 0.000000 0.464999 0.000000 0.885311 0.236085 0.236085 0.236085
6017.219727 0.000000 2154.424805 0.000000 0.372553 0.000000 0.928011 0.230977 0.230977 0.230977
6022.218750 0.000000 2165.480225 0.000000 0.585078 0.000000 0.810977 0.235159 0.235159 0.235159
6037.323242 0.000000 2187.628174 0.000000 0.493530 0.000000 0.869729 0.269654 0.269654 0.269654
6056.301758 0.000000 2186.723145 0.000000 0.565755 0.000000 0.824574 0.240454 0.240454 0.240454
6039.398438 0.000000 2202.206543 0.000000 0.332700 0.000000 0.943033 0.276754 0.276754 0.276754
6059.276855 0.000000 2191.892822 0.000000 0.292878 0.000000 0.956150 0.239807 0.239807 0.239807
6045.854004 0.000000 2175.598633 0.000000 0.477307 0.000000 0.878737 0.261026 0.261026 0.261026
6047.371094 0.000000 2201.467529 0.000000 0.534302 0.000000 0.845293 0.272364 0.272364 0.272364
6016.489258 0.000000 2177.828369 0.000000 0.192131 0.000000 0.981369 0.273692 0.273692 0.273692
6034.234375 0.000000 2177.869385 0.000000 0.190026 0.000000 0.981779 0.275356 0.275356 0.275356
6055.595215 0.000000 2189.504150 0.000000 0.300669 0.000000 0.953728 0.276496 0.276496 0.276496
6041.549805 0.000000 2201.293213 0.000000 0.291403 0.000000 0.956600 0.270989 0.270989 0.270989
6080.043457 0.000000 2170.657227 0.000000 0.218658 0.000000 0.975801 0.215554 0.215554 0.215554
6052.749023 0.000000 2212.260010 0.000000 0.150723 0.000000 0.988576 0.203650 0.203650 0.203650
6037.555664 0.000000 2206.975586 0.000000 0.337482 0.000000 0.941332 0.221187 0.221187 0.221187
6036.179199 0.000000 2204.167725 0.000000 0.013180 0.000000 0.999913 0.222676 0.222676 0.222676
6052.343262 0.000000 2209.431885 0.000000 0.523681 0.000000 0.851915 0.280526 0.280526 0.280526
6040.484375 0.000000 2202.901855 0.000000 0.174258 0.000000 0.984700 0.254026 0.254026 0.254026
5883.100586 0.000000 2269.467773 0.000000 0.061237 0.000000 0.998123 0.189599 0.189599 0.189599
5917.739258 0.000000 2280.838135 0.000000 0.440444 0.000000 0.897780 0.204655 0.204655 0.204655
5948.473145 0.000000 2286.359131 0.000000 0.236827 0.000000 0.971552 0.202393 0.202393 0.202393
5913.349609 0.000000 2279.325684 0.000000 0.223607 0.000000 0.974679 0.208220 0.208220 0.208220
5904.004883 0.000000 2276.842773 0.000000 0.293556 0.000000 0.955942 0.205363 0.205363 0.205363
5919.813965 0.000000 2282.413330 0.000000 0.299176 0.000000 0.954198 0.228655 0.228655 0.228655
5944.732422 0.000000 2307.932129 0.000000 0.293528 0.000000 0.955950 0.224665 0.224665 0.224665
5914.768555 0.000000 2274.307373 0.000000 0.170255 0.000000 0.985400 0.233969 0.233969 0.233969
5915.824219 0.000000 2272.236572 0.000000 0.014885 0.000000 0.999889 0.244347 0.244347 0.244347
5945.725098 0.000000 2291.877686 0.000000 0.272720 0.000000 0.962094 0.242942 0.242942 0.242942
5962.234863 0.000000 2306.820801 0.000000 0.539315 0.000000 0.842104 0.200450 0.200450 0.200450
5956.679688 0.000000 2311.989990 0.000000 0.147239 0.000000 0.989101 0.204112 0.204112 0.204112
5953.950684 0.000000 2299.349365 0.000000 0.267112 0.000000 0.963666 0.231223 0.231223 0.231223
6244.740723 0.000000 2002.055298 0.000000 0.241920 0.000000 0.970296 0.247349 0.247349 0.247349
6252.451660 0.000000 2020.565552 0.000000 0.283879 0.000000 0.958860 0.251290 0.251290 0.251290
"}
object={
	name="rainforest_sparse_generator_3_1"
	clamp_to_water_level=no
	render_under_water=no
	generated_content=yes
	layer="semidynamic_high"
	pdxmesh="tree_rainforest_002_mesh"
	count=108
	transform="5684.679199 0.000000 2222.579834 0.000000 0.894934 0.000000 0.446198 0.207271 0.207271 0.207271
5753.404785 0.000000 2240.534912 0.000000 0.626069 0.000000 0.779767 0.263601 0.263601 0.263601
5698.773438 0.000000 2208.932129 0.000000 0.736407 0.000000 0.676539 0.240520 0.240520 0.240520
5737.761719 0.000000 2241.879883 0.000000 0.634695 0.000000 0.772763 0.263761 0.263761 0.263761
5736.466309 0.000000 2236.427979 0.000000 0.606709 0.000000 0.794924 0.273255 0.273255 0.273255
5778.172363 0.000000 2228.037842 0.000000 0.612750 0.000000 0.790276 0.231465 0.231465 0.231465
5767.754395 0.000000 2232.856934 0.000000 0.945501 0.000000 0.325619 0.236016 0.236016 0.236016
5870.671387 0.000000 2249.345215 0.000000 0.768780 0.000000 0.639513 0.204389 0.204389 0.204389
5871.221680 0.000000 2243.592773 0.000000 0.687786 0.000000 0.725913 0.230455 0.230455 0.230455
5929.322754 0.000000 2138.197510 0.000000 0.913301 0.000000 0.407286 0.197204 0.197204 0.197204
5940.695312 0.000000 2136.894043 0.000000 0.732862 0.000000 0.680378 0.225402 0.225402 0.225402
5949.587402 0.000000 2137.819824 0.000000 0.884595 0.000000 0.466360 0.227459 0.227459 0.227459
5947.539551 0.000000 2142.456543 0.000000 0.654003 0.000000 0.756492 0.256527 0.256527 0.256527
5928.053711 0.000000 2142.276123 0.000000 0.854259 0.000000 0.519848 0.255971 0.255971 0.255971
5936.327148 0.000000 2145.224854 0.000000 0.831598 0.000000 0.555379 0.288754 0.288754 0.288754
5955.510742 0.000000 2136.849854 0.000000 0.892850 0.000000 0.450354 0.196816 0.196816 0.196816
5989.886230 0.000000 2136.093506 0.000000 0.743016 0.000000 0.669274 0.234402 0.234402 0.234402
5953.148926 0.000000 2114.071045 0.000000 0.592060 0.000000 0.805894 0.247908 0.247908 0.247908
6066.304199 0.000000 2116.309570 0.000000 0.691455 0.000000 0.722420 0.271458 0.271458 0.271458
6068.968750 0.000000 2121.669434 0.000000 0.757014 0.000000 0.653399 0.246067 0.246067 0.246067
6084.370605 0.000000 2116.511475 0.000000 0.909532 0.000000 0.415634 0.251078 0.251078 0.251078
5927.339844 0.000000 2147.988770 0.000000 0.800503 0.000000 0.599328 0.288111 0.288111 0.288111
5988.620605 0.000000 2193.114746 0.000000 0.930356 0.000000 0.366658 0.197507 0.197507 0.197507
5959.437500 0.000000 2201.449951 0.000000 0.603001 0.000000 0.797740 0.193636 0.193636 0.193636
5975.339844 0.000000 2178.813721 0.000000 0.768406 0.000000 0.639963 0.196460 0.196460 0.196460
6010.561523 0.000000 2178.165527 0.000000 0.862067 0.000000 0.506795 0.204050 0.204050 0.204050
5990.962402 0.000000 2190.586182 0.000000 0.842262 0.000000 0.539068 0.202692 0.202692 0.202692
5999.882812 0.000000 2151.429932 0.000000 0.610357 0.000000 0.792127 0.202668 0.202668 0.202668
5993.262207 0.000000 2159.743896 0.000000 0.766436 0.000000 0.642321 0.210156 0.210156 0.210156
5987.182129 0.000000 2153.172607 0.000000 0.594638 0.000000 0.803994 0.206641 0.206641 0.206641
5973.209473 0.000000 2153.268555 0.000000 0.605479 0.000000 0.795861 0.222683 0.222683 0.222683
5977.036621 0.000000 2171.341064 0.000000 0.763621 0.000000 0.645664 0.240470 0.240470 0.240470
5962.666016 0.000000 2188.767822 0.000000 0.930414 0.000000 0.366509 0.233939 0.233939 0.233939
6007.777832 0.000000 2175.341309 0.000000 0.884097 0.000000 0.467304 0.240261 0.240261 0.240261
5953.219727 0.000000 2154.424805 0.000000 0.863389 0.000000 0.504538 0.289900 0.289900 0.289900
5973.323242 0.000000 2187.628174 0.000000 0.717059 0.000000 0.697013 0.239165 0.239165 0.239165
5996.345703 0.000000 2157.122803 0.000000 0.784154 0.000000 0.620567 0.262692 0.262692 0.262692
5954.732422 0.000000 2154.619873 0.000000 0.927460 0.000000 0.373923 0.254319 0.254319 0.254319
5998.601562 0.000000 2153.508789 0.000000 0.841140 0.000000 0.540817 0.289793 0.289793 0.289793
5967.939941 0.000000 2201.104248 0.000000 0.765983 0.000000 0.642860 0.287711 0.287711 0.287711
5984.728027 0.000000 2157.614990 0.000000 0.821666 0.000000 0.569969 0.284910 0.284910 0.284910
5975.342773 0.000000 2171.146729 0.000000 0.897919 0.000000 0.440160 0.270974 0.270974 0.270974
5967.853516 0.000000 2161.143555 0.000000 0.838393 0.000000 0.545066 0.289962 0.289962 0.289962
6010.145020 0.000000 2191.550293 0.000000 0.875533 0.000000 0.483159 0.290671 0.290671 0.290671
6009.653809 0.000000 2199.246826 0.000000 0.787880 0.000000 0.615828 0.249258 0.249258 0.249258
6001.734375 0.000000 2164.515381 0.000000 0.653840 0.000000 0.756633 0.269675 0.269675 0.269675
6009.484375 0.000000 2187.422119 0.000000 0.632057 0.000000 0.774922 0.284063 0.284063 0.284063
6006.497559 0.000000 2159.570068 0.000000 0.771503 0.000000 0.636226 0.287992 0.287992 0.287992
6013.255859 0.000000 2167.496094 0.000000 0.814639 0.000000 0.579968 0.274330 0.274330 0.274330
5974.189453 0.000000 2175.409424 0.000000 0.703843 0.000000 0.710356 0.255905 0.255905 0.255905
5985.173340 0.000000 2170.803467 0.000000 0.894852 0.000000 0.446364 0.291163 0.291163 0.291163
5922.087402 0.000000 2227.945801 0.000000 0.877711 0.000000 0.479189 0.212875 0.212875 0.212875
5945.206055 0.000000 2212.517090 0.000000 0.940674 0.000000 0.339313 0.218514 0.218514 0.218514
5946.406250 0.000000 2241.970947 0.000000 0.936185 0.000000 0.351508 0.247070 0.247070 0.247070
5945.981445 0.000000 2208.518066 0.000000 0.877850 0.000000 0.478936 0.235321 0.235321 0.235321
5949.145996 0.000000 2244.569824 0.000000 0.761309 0.000000 0.648389 0.262709 0.262709 0.262709
5947.628418 0.000000 2246.566162 0.000000 0.622356 0.000000 0.782734 0.261519 0.261519 0.261519
5941.881348 0.000000 2245.050293 0.000000 0.784252 0.000000 0.620442 0.260621 0.260621 0.260621
5928.134277 0.000000 2247.481201 0.000000 0.891970 0.000000 0.452094 0.258036 0.258036 0.258036
5948.196777 0.000000 2212.660645 0.000000 0.853334 0.000000 0.521365 0.289525 0.289525 0.289525
5940.629395 0.000000 2245.090820 0.000000 0.729487 0.000000 0.683994 0.259476 0.259476 0.259476
5928.466309 0.000000 2236.427979 0.000000 0.893401 0.000000 0.449259 0.291799 0.291799 0.291799
5943.349609 0.000000 2243.360596 0.000000 0.857577 0.000000 0.514356 0.251831 0.251831 0.251831
6013.251953 0.000000 2209.705078 0.000000 0.932443 0.000000 0.361316 0.199314 0.199314 0.199314
6001.687988 0.000000 2211.843262 0.000000 0.685183 0.000000 0.728371 0.200303 0.200303 0.200303
5956.483887 0.000000 2232.639404 0.000000 0.892436 0.000000 0.451174 0.206689 0.206689 0.206689
5987.182129 0.000000 2209.656982 0.000000 0.890614 0.000000 0.454759 0.216867 0.216867 0.216867
5977.632324 0.000000 2218.108154 0.000000 0.799627 0.000000 0.600497 0.224323 0.224323 0.224323
5953.219727 0.000000 2210.909180 0.000000 0.946314 0.000000 0.323250 0.253913 0.253913 0.253913
6013.505859 0.000000 2210.967041 0.000000 0.796252 0.000000 0.604964 0.238970 0.238970 0.238970
5986.554688 0.000000 2212.604736 0.000000 0.837589 0.000000 0.546301 0.263439 0.263439 0.263439
5970.263672 0.000000 2214.977051 0.000000 0.852514 0.000000 0.522704 0.281661 0.281661 0.281661
5968.554199 0.000000 2255.665527 0.000000 0.897278 0.000000 0.441466 0.251796 0.251796 0.251796
5968.053223 0.000000 2208.250977 0.000000 0.897482 0.000000 0.441051 0.244863 0.244863 0.244863
5991.708496 0.000000 2208.885254 0.000000 0.832938 0.000000 0.553366 0.288801 0.288801 0.288801
5968.913574 0.000000 2206.673584 0.000000 0.601947 0.000000 0.798536 0.260653 0.260653 0.260653
6010.572266 0.000000 2202.926514 0.000000 0.875450 0.000000 0.483309 0.264455 0.264455 0.264455
5987.665039 0.000000 2212.471680 0.000000 0.773014 0.000000 0.634389 0.261929 0.261929 0.261929
5952.405762 0.000000 2212.666748 0.000000 0.767405 0.000000 0.641163 0.276753 0.276753 0.276753
6052.550293 0.000000 2177.200195 0.000000 0.656992 0.000000 0.753898 0.195325 0.195325 0.195325
6047.373535 0.000000 2189.839355 0.000000 0.699187 0.000000 0.714939 0.197830 0.197830 0.197830
6020.483887 0.000000 2176.155029 0.000000 0.668583 0.000000 0.743637 0.204301 0.204301 0.204301
6023.620605 0.000000 2152.635498 0.000000 0.688780 0.000000 0.724971 0.214413 0.214413 0.214413
6043.322754 0.000000 2170.876221 0.000000 0.687385 0.000000 0.726293 0.221142 0.221142 0.221142
6057.922852 0.000000 2171.558105 0.000000 0.784072 0.000000 0.620669 0.228276 0.228276 0.228276
6043.559082 0.000000 2182.295654 0.000000 0.777753 0.000000 0.628570 0.241766 0.241766 0.241766
6020.220703 0.000000 2163.760986 0.000000 0.937259 0.000000 0.348634 0.282087 0.282087 0.282087
6059.627441 0.000000 2197.589844 0.000000 0.833769 0.000000 0.552113 0.250750 0.250750 0.250750
6055.513672 0.000000 2201.048340 0.000000 0.849330 0.000000 0.527863 0.246357 0.246357 0.246357
6060.346191 0.000000 2194.046143 0.000000 0.874649 0.000000 0.484757 0.256495 0.256495 0.256495
6055.071777 0.000000 2196.124268 0.000000 0.808410 0.000000 0.588620 0.257515 0.257515 0.257515
6016.649414 0.000000 2161.321289 0.000000 0.611901 0.000000 0.790934 0.275356 0.275356 0.275356
6079.956055 0.000000 2173.324707 0.000000 0.821826 0.000000 0.569739 0.279722 0.279722 0.279722
6047.222656 0.000000 2200.240723 0.000000 0.808099 0.000000 0.589046 0.278309 0.278309 0.278309
6064.086914 0.000000 2182.087891 0.000000 0.910928 0.000000 0.412564 0.292308 0.292308 0.292308
6017.343750 0.000000 2159.719727 0.000000 0.892112 0.000000 0.451813 0.290359 0.290359 0.290359
6052.202637 0.000000 2206.539307 0.000000 0.878896 0.000000 0.477013 0.290969 0.290969 0.290969
6023.012695 0.000000 2203.981445 0.000000 0.936536 0.000000 0.350571 0.275614 0.275614 0.275614
5906.190430 0.000000 2268.897217 0.000000 0.657007 0.000000 0.753884 0.194286 0.194286 0.194286
5902.033691 0.000000 2265.265869 0.000000 0.710163 0.000000 0.704037 0.201613 0.201613 0.201613
5905.185059 0.000000 2273.881104 0.000000 0.782153 0.000000 0.623086 0.244455 0.244455 0.244455
5948.871582 0.000000 2288.569824 0.000000 0.845933 0.000000 0.533289 0.238886 0.238886 0.238886
5942.610352 0.000000 2309.288330 0.000000 0.647533 0.000000 0.762038 0.272570 0.272570 0.272570
5943.916992 0.000000 2309.541504 0.000000 0.804506 0.000000 0.593944 0.276141 0.276141 0.276141
5963.557617 0.000000 2299.322754 0.000000 0.725753 0.000000 0.687955 0.213830 0.213830 0.213830
5956.140625 0.000000 2300.942871 0.000000 0.691943 0.000000 0.721952 0.209768 0.209768 0.209768
5957.041016 0.000000 2303.151611 0.000000 0.629510 0.000000 0.776993 0.214749 0.214749 0.214749
6249.761719 0.000000 2015.942261 0.000000 0.703632 0.000000 0.710564 0.254365 0.254365 0.254365
"}
object={
	name="rainforest_sparse_generator_3_2"
	clamp_to_water_level=no
	render_under_water=no
	generated_content=yes
	layer="semidynamic_high"
	pdxmesh="tree_rainforest_004_mesh"
	count=125
	transform="5674.913086 0.000000 2256.890869 0.000000 0.999256 0.000000 -0.038568 0.260148 0.260148 0.260148
5694.358398 0.000000 2209.762451 0.000000 0.971352 0.000000 -0.237646 0.301817 0.301817 0.301817
5694.436523 0.000000 2213.412842 0.000000 0.999883 0.000000 0.015309 0.268980 0.268980 0.268980
5735.039551 0.000000 2243.052246 0.000000 0.977611 0.000000 -0.210419 0.220585 0.220585 0.220585
5736.074707 0.000000 2235.223633 0.000000 0.958038 0.000000 0.286641 0.226094 0.226094 0.226094
5746.448730 0.000000 2246.115479 0.000000 1.000000 0.000000 -0.000716 0.288247 0.288247 0.288247
5732.740723 0.000000 2227.992676 0.000000 0.979613 0.000000 -0.200894 0.287408 0.287408 0.287408
5737.785156 0.000000 2236.973877 0.000000 0.997426 0.000000 -0.071707 0.288801 0.288801 0.288801
5757.398438 0.000000 2245.703613 0.000000 0.977233 0.000000 0.212167 0.253149 0.253149 0.253149
5765.044922 0.000000 2233.767334 0.000000 0.981876 0.000000 0.189526 0.240244 0.240244 0.240244
5790.669434 0.000000 2218.507080 0.000000 0.997932 0.000000 0.064277 0.258301 0.258301 0.258301
5871.144043 0.000000 2240.615234 0.000000 0.956652 0.000000 0.291234 0.285740 0.285740 0.285740
5931.596680 0.000000 2138.463379 0.000000 0.989227 0.000000 0.146387 0.207551 0.207551 0.207551
5933.470215 0.000000 2137.206299 0.000000 0.978612 0.000000 -0.205713 0.243385 0.243385 0.243385
5950.281738 0.000000 2142.989502 0.000000 0.960598 0.000000 -0.277941 0.249361 0.249361 0.249361
5926.524902 0.000000 2137.275391 0.000000 0.999943 0.000000 -0.010656 0.276624 0.276624 0.276624
5950.572266 0.000000 2140.439697 0.000000 0.974356 0.000000 -0.225010 0.304334 0.304334 0.304334
5940.617188 0.000000 2143.278809 0.000000 0.988687 0.000000 -0.149997 0.270662 0.270662 0.270662
5929.492676 0.000000 2140.405762 0.000000 0.959065 0.000000 -0.283188 0.305484 0.305484 0.305484
5952.743652 0.000000 2140.842529 0.000000 0.990121 0.000000 0.140216 0.266726 0.266726 0.266726
5955.154785 0.000000 2110.673828 0.000000 0.984980 0.000000 0.172667 0.261885 0.261885 0.261885
6072.654297 0.000000 2107.134766 0.000000 0.971393 0.000000 0.237478 0.211226 0.211226 0.211226
6067.413574 0.000000 2109.472412 0.000000 0.997054 0.000000 0.076697 0.264257 0.264257 0.264257
6085.597168 0.000000 2116.808594 0.000000 0.962627 0.000000 -0.270829 0.259646 0.259646 0.259646
5934.953613 0.000000 2199.805908 0.000000 0.999988 0.000000 0.004947 0.243364 0.243364 0.243364
5934.797363 0.000000 2198.209473 0.000000 0.994677 0.000000 -0.103038 0.244540 0.244540 0.244540
5927.881348 0.000000 2146.469482 0.000000 0.977776 0.000000 -0.209655 0.303907 0.303907 0.303907
5977.661133 0.000000 2149.472412 0.000000 0.999993 0.000000 0.003686 0.199975 0.199975 0.199975
5991.778320 0.000000 2202.241211 0.000000 0.999721 0.000000 -0.023637 0.204937 0.204937 0.204937
5988.342285 0.000000 2202.074951 0.000000 0.988850 0.000000 0.148915 0.205871 0.205871 0.205871
5988.742188 0.000000 2199.611328 0.000000 0.976314 0.000000 -0.216359 0.212647 0.212647 0.212647
6002.999023 0.000000 2153.749023 0.000000 0.997789 0.000000 0.066468 0.220425 0.220425 0.220425
5985.519531 0.000000 2154.267334 0.000000 0.966328 0.000000 -0.257313 0.219853 0.219853 0.219853
6001.135254 0.000000 2173.243164 0.000000 0.999996 0.000000 -0.002952 0.230561 0.230561 0.230561
5974.404297 0.000000 2172.021484 0.000000 0.959479 0.000000 0.281779 0.234319 0.234319 0.234319
6000.063965 0.000000 2172.202148 0.000000 0.962221 0.000000 0.272268 0.227874 0.227874 0.227874
5975.724609 0.000000 2173.535645 0.000000 0.953756 0.000000 0.300581 0.234117 0.234117 0.234117
5988.687500 0.000000 2196.976562 0.000000 0.998774 0.000000 -0.049509 0.268734 0.268734 0.268734
5965.344238 0.000000 2160.696045 0.000000 0.999963 0.000000 -0.008627 0.288371 0.288371 0.288371
5992.703613 0.000000 2201.274658 0.000000 0.978080 0.000000 0.208231 0.269623 0.269623 0.269623
6000.177246 0.000000 2184.448242 0.000000 0.999350 0.000000 0.036043 0.292130 0.292130 0.292130
5988.191406 0.000000 2158.111084 0.000000 0.957309 0.000000 -0.289065 0.305601 0.305601 0.305601
5986.554688 0.000000 2156.120361 0.000000 0.982854 0.000000 -0.184386 0.303500 0.303500 0.303500
6010.116699 0.000000 2195.722412 0.000000 0.956086 0.000000 0.293086 0.241269 0.241269 0.241269
5969.052246 0.000000 2189.210693 0.000000 0.972703 0.000000 -0.232054 0.268919 0.268919 0.268919
6005.096680 0.000000 2160.316650 0.000000 0.957301 0.000000 -0.289094 0.298657 0.298657 0.298657
5990.524902 0.000000 2193.759766 0.000000 0.997054 0.000000 -0.076703 0.249333 0.249333 0.249333
5993.763184 0.000000 2168.426758 0.000000 0.992600 0.000000 -0.121431 0.294701 0.294701 0.294701
6001.310547 0.000000 2175.875977 0.000000 0.993841 0.000000 -0.110812 0.302121 0.302121 0.302121
5993.447266 0.000000 2163.311523 0.000000 0.972566 0.000000 0.232628 0.295516 0.295516 0.295516
5976.429199 0.000000 2170.339844 0.000000 0.999254 0.000000 0.038616 0.248020 0.248020 0.248020
5993.081055 0.000000 2173.923584 0.000000 0.997900 0.000000 -0.064772 0.301238 0.301238 0.301238
5994.742676 0.000000 2170.595947 0.000000 0.997912 0.000000 -0.064587 0.261039 0.261039 0.261039
6007.349609 0.000000 2186.876221 0.000000 0.954446 0.000000 0.298382 0.294213 0.294213 0.294213
5959.012695 0.000000 2147.497070 0.000000 0.956137 0.000000 0.292919 0.294467 0.294467 0.294467
5931.596680 0.000000 2251.432129 0.000000 0.995012 0.000000 0.099752 0.204024 0.204024 0.204024
5912.332520 0.000000 2238.094971 0.000000 0.996642 0.000000 -0.081887 0.217213 0.217213 0.217213
5913.632324 0.000000 2218.108154 0.000000 0.978793 0.000000 0.204851 0.230192 0.230192 0.230192
5939.663574 0.000000 2204.059082 0.000000 0.999964 0.000000 -0.008452 0.231174 0.231174 0.231174
5930.544434 0.000000 2239.743652 0.000000 0.988427 0.000000 0.151697 0.297092 0.297092 0.297092
5919.443848 0.000000 2241.001953 0.000000 0.983715 0.000000 -0.179737 0.260218 0.260218 0.260218
5949.505859 0.000000 2210.967041 0.000000 0.993720 0.000000 0.111900 0.297858 0.297858 0.297858
5946.116699 0.000000 2252.206787 0.000000 0.951455 0.000000 0.307789 0.250321 0.250321 0.250321
5946.264648 0.000000 2253.528564 0.000000 0.979063 0.000000 0.203557 0.251611 0.251611 0.251611
5919.082031 0.000000 2239.038330 0.000000 0.993658 0.000000 0.112441 0.297878 0.297878 0.297878
5946.917480 0.000000 2250.137207 0.000000 0.998858 0.000000 0.047780 0.253490 0.253490 0.253490
5929.785156 0.000000 2236.973877 0.000000 0.994052 0.000000 -0.108906 0.301921 0.301921 0.301921
5936.827148 0.000000 2246.728516 0.000000 0.986944 0.000000 -0.161065 0.303090 0.303090 0.303090
5949.398438 0.000000 2245.703613 0.000000 0.997592 0.000000 -0.069361 0.273517 0.273517 0.273517
5945.484375 0.000000 2243.906494 0.000000 0.954504 0.000000 -0.298197 0.281408 0.281408 0.281408
5945.571289 0.000000 2242.746338 0.000000 0.994786 0.000000 0.101988 0.275554 0.275554 0.275554
5920.724121 0.000000 2225.306885 0.000000 0.987271 0.000000 0.159049 0.296949 0.296949 0.296949
5963.406250 0.000000 2235.961426 0.000000 0.997333 0.000000 0.072981 0.199506 0.199506 0.199506
5964.526855 0.000000 2225.936523 0.000000 0.996407 0.000000 0.084691 0.199422 0.199422 0.199422
5954.199219 0.000000 2210.002930 0.000000 0.951644 0.000000 -0.307202 0.213391 0.213391 0.213391
6002.516602 0.000000 2218.922119 0.000000 0.984854 0.000000 0.173389 0.208996 0.208996 0.208996
5965.021484 0.000000 2235.519531 0.000000 0.988338 0.000000 0.152275 0.220772 0.220772 0.220772
5953.598145 0.000000 2206.456299 0.000000 0.990316 0.000000 0.138833 0.226978 0.226978 0.226978
5952.421387 0.000000 2246.413818 0.000000 0.999639 0.000000 0.026874 0.235861 0.235861 0.235861
5960.616211 0.000000 2220.134277 0.000000 0.997303 0.000000 0.073389 0.253739 0.253739 0.253739
5960.904785 0.000000 2209.170410 0.000000 0.953121 0.000000 0.302590 0.294256 0.294256 0.294256
5961.798340 0.000000 2208.264160 0.000000 0.996231 0.000000 0.086745 0.298377 0.298377 0.298377
5955.798340 0.000000 2231.496826 0.000000 0.975868 0.000000 -0.218361 0.304204 0.304204 0.304204
5954.034668 0.000000 2228.976318 0.000000 0.996627 0.000000 -0.082067 0.261825 0.261825 0.261825
6016.090332 0.000000 2149.701904 0.000000 0.963449 0.000000 0.267893 0.200019 0.200019 0.200019
6074.561523 0.000000 2178.165527 0.000000 0.954344 0.000000 0.298709 0.204160 0.204160 0.204160
6055.167969 0.000000 2194.876221 0.000000 0.999455 0.000000 -0.033018 0.212309 0.212309 0.212309
6065.909180 0.000000 2178.247559 0.000000 0.999925 0.000000 0.012286 0.211947 0.211947 0.211947
6025.693359 0.000000 2155.468994 0.000000 0.973016 0.000000 0.230736 0.218417 0.218417 0.218417
6033.688477 0.000000 2174.633057 0.000000 0.999583 0.000000 -0.028863 0.216769 0.216769 0.216769
6026.378418 0.000000 2158.267578 0.000000 0.996469 0.000000 -0.083961 0.225133 0.225133 0.225133
6044.286133 0.000000 2168.091797 0.000000 0.983425 0.000000 -0.181314 0.245401 0.245401 0.245401
6023.500488 0.000000 2165.702637 0.000000 0.964861 0.000000 -0.262760 0.248610 0.248610 0.248610
6021.475098 0.000000 2154.682373 0.000000 0.980454 0.000000 0.196749 0.236868 0.236868 0.236868
6042.914551 0.000000 2198.110107 0.000000 0.959251 0.000000 0.282556 0.262043 0.262043 0.262043
6042.372559 0.000000 2199.262939 0.000000 0.952328 0.000000 0.305076 0.261732 0.261732 0.261732
6041.752441 0.000000 2202.783447 0.000000 0.976969 0.000000 0.213381 0.270643 0.270643 0.270643
6017.515137 0.000000 2175.591309 0.000000 0.999460 0.000000 0.032856 0.289950 0.289950 0.289950
6031.939941 0.000000 2201.104248 0.000000 0.970187 0.000000 0.242357 0.269679 0.269679 0.269679
6058.279785 0.000000 2191.262939 0.000000 0.968585 0.000000 -0.248682 0.258216 0.258216 0.258216
6059.550781 0.000000 2196.113525 0.000000 0.951317 0.000000 0.308213 0.254109 0.254109 0.254109
6060.773926 0.000000 2182.329346 0.000000 0.960988 0.000000 -0.276591 0.295547 0.295547 0.295547
6021.924316 0.000000 2162.045654 0.000000 0.999774 0.000000 0.021253 0.287342 0.287342 0.287342
6062.890137 0.000000 2182.661133 0.000000 0.994000 0.000000 -0.109382 0.290530 0.290530 0.290530
6028.296875 0.000000 2199.991943 0.000000 0.991747 0.000000 -0.128206 0.259573 0.259573 0.259573
6040.512695 0.000000 2210.623535 0.000000 0.975661 0.000000 -0.219283 0.222377 0.222377 0.222377
6040.779785 0.000000 2207.427246 0.000000 0.967809 0.000000 -0.251685 0.229544 0.229544 0.229544
6024.161133 0.000000 2215.011963 0.000000 0.985608 0.000000 -0.169047 0.240709 0.240709 0.240709
6052.154785 0.000000 2210.593018 0.000000 0.990796 0.000000 -0.135361 0.296069 0.296069 0.296069
5882.270996 0.000000 2267.708740 0.000000 0.999316 0.000000 0.036991 0.213983 0.213983 0.213983
5903.197266 0.000000 2271.007812 0.000000 0.968512 0.000000 -0.248967 0.201696 0.201696 0.201696
5924.029297 0.000000 2277.927734 0.000000 0.995182 0.000000 -0.098050 0.200674 0.200674 0.200674
5948.454590 0.000000 2299.714111 0.000000 0.982136 0.000000 -0.188172 0.212989 0.212989 0.212989
5950.913574 0.000000 2305.413574 0.000000 0.973779 0.000000 -0.227496 0.234461 0.234461 0.234461
5937.542480 0.000000 2280.803711 0.000000 0.998700 0.000000 -0.050972 0.234964 0.234964 0.234964
5913.909180 0.000000 2276.461182 0.000000 0.960803 0.000000 0.277232 0.225096 0.225096 0.225096
5951.246094 0.000000 2295.384521 0.000000 0.995378 0.000000 0.096035 0.248474 0.248474 0.248474
5955.385254 0.000000 2297.809570 0.000000 0.968597 0.000000 -0.248636 0.213481 0.213481 0.213481
5961.808105 0.000000 2300.542236 0.000000 0.985465 0.000000 -0.169876 0.207159 0.207159 0.207159
5952.144043 0.000000 2287.775146 0.000000 0.999937 0.000000 0.011251 0.219231 0.219231 0.219231
5952.421387 0.000000 2302.898193 0.000000 0.984676 0.000000 -0.174393 0.236778 0.236778 0.236778
5953.237793 0.000000 2295.697021 0.000000 0.951097 0.000000 -0.308891 0.290279 0.290279 0.290279
6249.204590 0.000000 2013.514526 0.000000 0.995774 0.000000 -0.091839 0.200625 0.200625 0.200625
6252.416992 0.000000 2021.956665 0.000000 0.988831 0.000000 -0.149042 0.270649 0.270649 0.270649
6248.188477 0.000000 2014.296143 0.000000 0.951185 0.000000 0.308623 0.260601 0.260601 0.260601
"}
object={
	name="rainforest_sparse_generator_3_3"
	clamp_to_water_level=no
	render_under_water=no
	generated_content=yes
	layer="semidynamic_high"
	pdxmesh="tree_rainforest_005_mesh"
	count=109
	transform="5695.273438 0.000000 2214.281738 0.000000 0.867428 0.000000 -0.497563 0.213868 0.213868 0.213868
5666.375977 0.000000 2219.333252 0.000000 0.899625 0.000000 -0.436664 0.225556 0.225556 0.225556
5687.353516 0.000000 2210.034424 0.000000 0.775690 0.000000 -0.631114 0.238904 0.238904 0.238904
5738.059082 0.000000 2238.173584 0.000000 0.921487 0.000000 -0.388408 0.230892 0.230892 0.230892
5730.581543 0.000000 2222.070312 0.000000 0.877726 0.000000 -0.479163 0.240629 0.240629 0.240629
5750.847168 0.000000 2245.752441 0.000000 0.725197 0.000000 -0.688542 0.281320 0.281320 0.281320
5736.188477 0.000000 2240.233643 0.000000 0.774407 0.000000 -0.632688 0.286329 0.286329 0.286329
5733.876953 0.000000 2226.708008 0.000000 0.822403 0.000000 -0.568905 0.293571 0.293571 0.293571
5867.628906 0.000000 2243.281738 0.000000 0.808293 0.000000 -0.588781 0.218848 0.218848 0.218848
5870.644531 0.000000 2247.886963 0.000000 0.800376 0.000000 -0.599498 0.249219 0.249219 0.249219
5935.731934 0.000000 2137.020752 0.000000 0.723478 0.000000 -0.690348 0.314553 0.314553 0.314553
5934.873535 0.000000 2139.023193 0.000000 0.868463 0.000000 -0.495755 0.291654 0.291654 0.291654
5942.610352 0.000000 2139.835205 0.000000 0.849358 0.000000 -0.527816 0.310619 0.310619 0.310619
5952.125977 0.000000 2109.343750 0.000000 0.654675 0.000000 -0.755911 0.316368 0.316368 0.316368
5958.709961 0.000000 2146.051758 0.000000 0.616318 0.000000 -0.787498 0.316876 0.316876 0.316876
6054.385742 0.000000 2106.766846 0.000000 0.923954 0.000000 -0.382503 0.203615 0.203615 0.203615
6069.408691 0.000000 2118.335449 0.000000 0.589535 0.000000 -0.807743 0.244476 0.244476 0.244476
6067.089355 0.000000 2118.918701 0.000000 0.898787 0.000000 -0.438385 0.276525 0.276525 0.276525
6069.144531 0.000000 2099.242920 0.000000 0.710778 0.000000 -0.703417 0.265207 0.265207 0.265207
5932.655273 0.000000 2198.331543 0.000000 0.901844 0.000000 -0.432062 0.252374 0.252374 0.252374
5929.855957 0.000000 2147.421875 0.000000 0.693368 0.000000 -0.720583 0.304601 0.304601 0.304601
5951.644043 0.000000 2202.426758 0.000000 0.935764 0.000000 -0.352626 0.261277 0.261277 0.261277
5948.292969 0.000000 2202.729004 0.000000 0.771563 0.000000 -0.636154 0.313169 0.313169 0.313169
6008.742188 0.000000 2176.300049 0.000000 0.659101 0.000000 -0.752054 0.211049 0.211049 0.211049
5996.442383 0.000000 2152.918945 0.000000 0.801549 0.000000 -0.597929 0.223671 0.223671 0.223671
6014.675293 0.000000 2198.157471 0.000000 0.924776 0.000000 -0.380511 0.223853 0.223853 0.223853
5960.986816 0.000000 2201.114258 0.000000 0.856843 0.000000 -0.515578 0.231049 0.231049 0.231049
6002.362305 0.000000 2181.103760 0.000000 0.929926 0.000000 -0.367746 0.242867 0.242867 0.242867
6002.163574 0.000000 2193.381836 0.000000 0.919900 0.000000 -0.392153 0.251880 0.251880 0.251880
5993.821777 0.000000 2160.863281 0.000000 0.886188 0.000000 -0.463327 0.300568 0.300568 0.300568
6003.326660 0.000000 2193.921875 0.000000 0.795870 0.000000 -0.605467 0.254668 0.254668 0.254668
6008.311035 0.000000 2191.058350 0.000000 0.863945 0.000000 -0.503586 0.308474 0.308474 0.308474
6010.917480 0.000000 2193.652832 0.000000 0.735254 0.000000 -0.677792 0.284152 0.284152 0.284152
6010.650879 0.000000 2157.584229 0.000000 0.813245 0.000000 -0.581922 0.270442 0.270442 0.270442
5982.669434 0.000000 2162.022705 0.000000 0.925424 0.000000 -0.378933 0.306680 0.306680 0.306680
5991.071777 0.000000 2196.124268 0.000000 0.866493 0.000000 -0.499189 0.275098 0.275098 0.275098
5986.956543 0.000000 2167.636475 0.000000 0.799827 0.000000 -0.600231 0.286938 0.286938 0.286938
5963.572266 0.000000 2171.985107 0.000000 0.802943 0.000000 -0.596056 0.276657 0.276657 0.276657
5972.942871 0.000000 2196.013428 0.000000 0.770812 0.000000 -0.637063 0.312079 0.312079 0.312079
6008.213867 0.000000 2157.933350 0.000000 0.760426 0.000000 -0.649425 0.312361 0.312361 0.312361
6009.571289 0.000000 2186.261963 0.000000 0.606147 0.000000 -0.795353 0.316530 0.316530 0.316530
6009.305176 0.000000 2197.603027 0.000000 0.826642 0.000000 -0.562728 0.306063 0.306063 0.306063
6000.086914 0.000000 2182.087891 0.000000 0.863620 0.000000 -0.504144 0.288234 0.288234 0.288234
5999.740234 0.000000 2161.544922 0.000000 0.716129 0.000000 -0.697968 0.314003 0.314003 0.314003
5976.183105 0.000000 2168.093750 0.000000 0.708129 0.000000 -0.706083 0.311631 0.311631 0.311631
5934.693848 0.000000 2234.949219 0.000000 0.827575 0.000000 -0.561355 0.206228 0.206228 0.206228
5945.129395 0.000000 2241.709229 0.000000 0.943952 0.000000 -0.330082 0.212429 0.212429 0.212429
5922.177734 0.000000 2229.823730 0.000000 0.751560 0.000000 -0.659665 0.220777 0.220777 0.220777
5893.809082 0.000000 2258.373779 0.000000 0.866510 0.000000 -0.499159 0.228526 0.228526 0.228526
5934.671387 0.000000 2236.427246 0.000000 0.646133 0.000000 -0.763224 0.240720 0.240720 0.240720
5912.874512 0.000000 2220.905762 0.000000 0.897250 0.000000 -0.441523 0.245465 0.245465 0.245465
5923.804199 0.000000 2246.192139 0.000000 0.809684 0.000000 -0.586866 0.249050 0.249050 0.249050
5947.996582 0.000000 2210.159668 0.000000 0.743484 0.000000 -0.668753 0.254391 0.254391 0.254391
5931.584473 0.000000 2241.965576 0.000000 0.608993 0.000000 -0.793176 0.313250 0.313250 0.313250
5938.448730 0.000000 2246.115479 0.000000 0.705243 0.000000 -0.708966 0.265908 0.265908 0.265908
5948.125488 0.000000 2213.785156 0.000000 0.883591 0.000000 -0.468259 0.309307 0.309307 0.309307
5947.484375 0.000000 2244.086914 0.000000 0.940349 0.000000 -0.340211 0.306019 0.306019 0.306019
5975.068359 0.000000 2207.401855 0.000000 0.742166 0.000000 -0.670216 0.205134 0.205134 0.205134
5974.338379 0.000000 2215.873047 0.000000 0.759312 0.000000 -0.650727 0.231396 0.231396 0.231396
5977.909180 0.000000 2219.976807 0.000000 0.757133 0.000000 -0.653261 0.237395 0.237395 0.237395
5962.359863 0.000000 2210.708008 0.000000 0.694568 0.000000 -0.719427 0.285582 0.285582 0.285582
5998.633301 0.000000 2207.606445 0.000000 0.784587 0.000000 -0.620019 0.288507 0.288507 0.288507
5957.862793 0.000000 2238.755615 0.000000 0.871131 0.000000 -0.491051 0.262559 0.262559 0.262559
6042.074219 0.000000 2176.922607 0.000000 0.949475 0.000000 -0.313844 0.202072 0.202072 0.202072
6059.659668 0.000000 2182.585938 0.000000 0.737684 0.000000 -0.675146 0.206674 0.206674 0.206674
6025.322266 0.000000 2165.373779 0.000000 0.867835 0.000000 -0.496853 0.208603 0.208603 0.208603
6052.560547 0.000000 2160.461914 0.000000 0.858735 0.000000 -0.512419 0.222207 0.222207 0.222207
6021.431641 0.000000 2157.182861 0.000000 0.949655 0.000000 -0.313298 0.226685 0.226685 0.226685
6042.062500 0.000000 2173.443848 0.000000 0.802677 0.000000 -0.596414 0.239068 0.239068 0.239068
6062.671387 0.000000 2179.942871 0.000000 0.789878 0.000000 -0.613263 0.250599 0.250599 0.250599
6058.351562 0.000000 2195.494629 0.000000 0.773235 0.000000 -0.634120 0.253283 0.253283 0.253283
6070.683594 0.000000 2176.968018 0.000000 0.823924 0.000000 -0.566700 0.252940 0.252940 0.252940
6020.693359 0.000000 2179.046631 0.000000 0.775600 0.000000 -0.631224 0.272441 0.272441 0.272441
6044.046387 0.000000 2179.720459 0.000000 0.733611 0.000000 -0.679569 0.275694 0.275694 0.275694
6019.610840 0.000000 2148.387939 0.000000 0.777985 0.000000 -0.628282 0.263983 0.263983 0.263983
6036.580078 0.000000 2194.003418 0.000000 0.744765 0.000000 -0.667327 0.313954 0.313954 0.313954
6016.213379 0.000000 2158.507812 0.000000 0.950433 0.000000 -0.310928 0.303688 0.303688 0.303688
6033.432129 0.000000 2201.537109 0.000000 0.792917 0.000000 -0.609330 0.257112 0.257112 0.257112
6042.905273 0.000000 2179.979492 0.000000 0.865675 0.000000 -0.500607 0.309248 0.309248 0.309248
6063.144043 0.000000 2184.130859 0.000000 0.907232 0.000000 -0.420630 0.301561 0.301561 0.301561
6044.225586 0.000000 2174.036133 0.000000 0.920700 0.000000 -0.390271 0.282240 0.282240 0.282240
6022.709961 0.000000 2202.536133 0.000000 0.683360 0.000000 -0.730082 0.293151 0.293151 0.293151
6084.993652 0.000000 2170.589355 0.000000 0.941048 0.000000 -0.338272 0.293673 0.293673 0.293673
6024.993164 0.000000 2206.017334 0.000000 0.874997 0.000000 -0.484129 0.233058 0.233058 0.233058
6039.673828 0.000000 2208.846680 0.000000 0.900903 0.000000 -0.434021 0.230776 0.230776 0.230776
6049.760254 0.000000 2207.298828 0.000000 0.903605 0.000000 -0.428366 0.236550 0.236550 0.236550
6026.865723 0.000000 2217.981445 0.000000 0.711828 0.000000 -0.702354 0.270038 0.270038 0.270038
6038.342773 0.000000 2203.036133 0.000000 0.713271 0.000000 -0.700888 0.314658 0.314658 0.314658
5884.727539 0.000000 2261.869385 0.000000 0.803113 0.000000 -0.595827 0.213015 0.213015 0.213015
5882.572266 0.000000 2259.410889 0.000000 0.598788 0.000000 -0.800907 0.274394 0.274394 0.274394
5899.786133 0.000000 2264.427979 0.000000 0.828251 0.000000 -0.560357 0.203920 0.203920 0.203920
5912.077637 0.000000 2268.771484 0.000000 0.680553 0.000000 -0.732699 0.208445 0.208445 0.208445
5911.105957 0.000000 2280.611572 0.000000 0.761590 0.000000 -0.648059 0.214120 0.214120 0.214120
5908.575195 0.000000 2277.879150 0.000000 0.826639 0.000000 -0.562733 0.235111 0.235111 0.235111
5921.762207 0.000000 2281.272949 0.000000 0.866414 0.000000 -0.499326 0.239099 0.239099 0.239099
5889.323730 0.000000 2265.432373 0.000000 0.896156 0.000000 -0.443740 0.248419 0.248419 0.248419
5910.709473 0.000000 2279.337158 0.000000 0.809888 0.000000 -0.586585 0.273506 0.273506 0.273506
5951.956055 0.000000 2286.293457 0.000000 0.887093 0.000000 -0.461591 0.269216 0.269216 0.269216
5954.269043 0.000000 2312.808838 0.000000 0.650428 0.000000 -0.759568 0.213534 0.213534 0.213534
5953.042969 0.000000 2291.875977 0.000000 0.798072 0.000000 -0.602562 0.215442 0.215442 0.215442
5962.618164 0.000000 2310.818359 0.000000 0.887873 0.000000 -0.460088 0.214118 0.214118 0.214118
5961.995605 0.000000 2308.216064 0.000000 0.760274 0.000000 -0.649603 0.247514 0.247514 0.247514
5975.733887 0.000000 2301.276123 0.000000 0.671673 0.000000 -0.740847 0.259171 0.259171 0.259171
5961.561035 0.000000 2310.520508 0.000000 0.774386 0.000000 -0.632713 0.313084 0.313084 0.313084
5962.564941 0.000000 2318.408203 0.000000 0.675090 0.000000 -0.737735 0.205738 0.205738 0.205738
5959.620605 0.000000 2322.088623 0.000000 0.659748 0.000000 -0.751487 0.231483 0.231483 0.231483
5964.183105 0.000000 2325.514648 0.000000 0.805815 0.000000 -0.592167 0.248526 0.248526 0.248526
6249.405762 0.000000 2014.806030 0.000000 0.862694 0.000000 -0.505726 0.271644 0.271644 0.271644
6247.291504 0.000000 2015.958618 0.000000 0.872515 0.000000 -0.488587 0.309749 0.309749 0.309749
"}
object={
	name="rainforest_sparse_generator_3_4"
	clamp_to_water_level=no
	render_under_water=no
	generated_content=yes
	layer="semidynamic_high"
	pdxmesh="tree_rainforest_005_mesh"
	count=94
	transform="5752.096680 0.000000 2230.534668 0.000000 0.555852 0.000000 -0.831281 0.215645 0.215645 0.215645
5737.405762 0.000000 2240.743408 0.000000 0.129790 0.000000 -0.991542 0.297203 0.297203 0.297203
5726.868164 0.000000 2223.632812 0.000000 0.387853 0.000000 -0.921721 0.288904 0.288904 0.288904
5751.950684 0.000000 2241.074707 0.000000 0.550958 0.000000 -0.834533 0.304420 0.304420 0.304420
5728.863281 0.000000 2223.715332 0.000000 0.204297 0.000000 -0.978909 0.298705 0.298705 0.298705
5776.485352 0.000000 2228.002930 0.000000 0.391597 0.000000 -0.920137 0.244904 0.244904 0.244904
5877.188965 0.000000 2257.303467 0.000000 0.009001 0.000000 -0.999959 0.234710 0.234710 0.234710
5930.219238 0.000000 2136.136475 0.000000 0.116065 0.000000 -0.993242 0.223042 0.223042 0.223042
5942.280273 0.000000 2136.501221 0.000000 0.150153 0.000000 -0.988663 0.235360 0.235360 0.235360
5948.439453 0.000000 2138.974854 0.000000 0.264674 0.000000 -0.964338 0.297795 0.297795 0.297795
5935.887207 0.000000 2139.711670 0.000000 0.587713 0.000000 -0.809069 0.298109 0.298109 0.298109
5937.639160 0.000000 2145.678467 0.000000 0.582040 0.000000 -0.813160 0.318135 0.318135 0.318135
5949.190430 0.000000 2145.343994 0.000000 0.454093 0.000000 -0.890954 0.270329 0.270329 0.270329
5945.305176 0.000000 2141.118652 0.000000 0.433877 0.000000 -0.900972 0.321429 0.321429 0.321429
5953.312988 0.000000 2109.407471 0.000000 0.553899 0.000000 -0.832584 0.318788 0.318788 0.318788
5952.361816 0.000000 2111.557861 0.000000 0.356359 0.000000 -0.934349 0.267226 0.267226 0.267226
6065.734375 0.000000 2108.031006 0.000000 0.358412 0.000000 -0.933564 0.290618 0.290618 0.290618
6080.597656 0.000000 2110.389160 0.000000 0.355321 0.000000 -0.934744 0.218611 0.218611 0.218611
6008.315430 0.000000 2183.415283 0.000000 0.291051 0.000000 -0.956707 0.208502 0.208502 0.208502
6004.122559 0.000000 2184.071289 0.000000 0.587617 0.000000 -0.809139 0.235357 0.235357 0.235357
5960.954590 0.000000 2170.124268 0.000000 0.324990 0.000000 -0.945718 0.236867 0.236867 0.236867
5987.500488 0.000000 2173.990723 0.000000 0.288714 0.000000 -0.957415 0.250388 0.250388 0.250388
5964.904785 0.000000 2173.888672 0.000000 0.553912 0.000000 -0.832576 0.255348 0.255348 0.255348
5999.249023 0.000000 2169.143555 0.000000 0.554199 0.000000 -0.832384 0.267672 0.267672 0.267672
5997.442383 0.000000 2158.169189 0.000000 0.549171 0.000000 -0.835710 0.282619 0.282619 0.282619
6003.583984 0.000000 2150.982178 0.000000 0.451288 0.000000 -0.892379 0.321058 0.321058 0.321058
5982.762207 0.000000 2168.574951 0.000000 0.438237 0.000000 -0.898860 0.319997 0.319997 0.319997
6000.795410 0.000000 2156.431152 0.000000 0.147004 0.000000 -0.989136 0.302166 0.302166 0.302166
6007.779785 0.000000 2169.592529 0.000000 0.155890 0.000000 -0.987774 0.272256 0.272256 0.272256
5990.214844 0.000000 2159.036133 0.000000 0.182659 0.000000 -0.983176 0.326492 0.326492 0.326492
5987.712891 0.000000 2163.186768 0.000000 0.313388 0.000000 -0.949625 0.273466 0.273466 0.273466
5951.825195 0.000000 2216.143311 0.000000 0.112535 0.000000 -0.993648 0.231902 0.231902 0.231902
5943.893555 0.000000 2246.395508 0.000000 0.035327 0.000000 -0.999376 0.222420 0.222420 0.222420
5920.594727 0.000000 2222.529053 0.000000 0.511093 0.000000 -0.859525 0.227026 0.227026 0.227026
5935.960449 0.000000 2245.842285 0.000000 0.371395 0.000000 -0.928475 0.253236 0.253236 0.253236
5931.276855 0.000000 2248.377197 0.000000 0.569820 0.000000 -0.821769 0.280422 0.280422 0.280422
5918.762207 0.000000 2225.059326 0.000000 0.066283 0.000000 -0.997801 0.272697 0.272697 0.272697
5934.588379 0.000000 2246.671875 0.000000 0.418875 0.000000 -0.908044 0.285275 0.285275 0.285275
5948.552246 0.000000 2204.199951 0.000000 0.073659 0.000000 -0.997284 0.302609 0.302609 0.302609
5947.012207 0.000000 2251.317383 0.000000 0.263345 0.000000 -0.964702 0.269656 0.269656 0.269656
5922.956543 0.000000 2224.120850 0.000000 0.154506 0.000000 -0.987992 0.282584 0.282584 0.282584
5929.761719 0.000000 2241.879883 0.000000 0.470590 0.000000 -0.882352 0.308431 0.308431 0.308431
5928.188477 0.000000 2240.233643 0.000000 0.386210 0.000000 -0.922411 0.309935 0.309935 0.309935
5950.141113 0.000000 2249.758789 0.000000 0.361177 0.000000 -0.932497 0.322898 0.322898 0.322898
5950.436523 0.000000 2213.412842 0.000000 0.209105 0.000000 -0.977893 0.325977 0.325977 0.325977
5949.764648 0.000000 2240.546631 0.000000 0.274585 0.000000 -0.961563 0.324688 0.324688 0.324688
5979.966309 0.000000 2212.503662 0.000000 0.373019 0.000000 -0.927824 0.219696 0.219696 0.219696
5962.780273 0.000000 2237.674561 0.000000 0.100391 0.000000 -0.994948 0.225058 0.225058 0.225058
5996.188965 0.000000 2207.911865 0.000000 0.535698 0.000000 -0.844409 0.240225 0.240225 0.240225
5958.164062 0.000000 2231.460449 0.000000 0.329574 0.000000 -0.944130 0.249319 0.249319 0.249319
5971.524902 0.000000 2239.824463 0.000000 0.071959 0.000000 -0.997408 0.257149 0.257149 0.257149
5958.382324 0.000000 2239.890625 0.000000 0.135422 0.000000 -0.990788 0.240558 0.240558 0.240558
5959.754395 0.000000 2232.856934 0.000000 0.425920 0.000000 -0.904761 0.295275 0.295275 0.295275
5988.154785 0.000000 2210.593018 0.000000 0.031581 0.000000 -0.999501 0.329397 0.329397 0.329397
5971.737305 0.000000 2209.372314 0.000000 0.267378 0.000000 -0.963592 0.295824 0.295824 0.295824
5971.389160 0.000000 2215.473389 0.000000 0.207021 0.000000 -0.978337 0.312309 0.312309 0.312309
5995.903809 0.000000 2202.998047 0.000000 0.395452 0.000000 -0.918487 0.256082 0.256082 0.256082
5998.601562 0.000000 2209.993164 0.000000 0.438526 0.000000 -0.898718 0.305836 0.305836 0.305836
5952.213379 0.000000 2214.992188 0.000000 0.134212 0.000000 -0.990953 0.275098 0.275098 0.275098
5988.323242 0.000000 2213.391357 0.000000 0.024264 0.000000 -0.999706 0.311944 0.311944 0.311944
5997.243652 0.000000 2211.752686 0.000000 0.235851 0.000000 -0.971789 0.270633 0.270633 0.270633
5979.859375 0.000000 2218.035889 0.000000 0.337170 0.000000 -0.941444 0.299879 0.299879 0.299879
5970.209473 0.000000 2213.794189 0.000000 0.515449 0.000000 -0.856920 0.279419 0.279419 0.279419
6019.913086 0.000000 2157.342773 0.000000 0.341935 0.000000 -0.939724 0.209478 0.209478 0.209478
6070.158691 0.000000 2178.466064 0.000000 0.142313 0.000000 -0.989822 0.210312 0.210312 0.210312
6016.712402 0.000000 2164.627197 0.000000 0.300225 0.000000 -0.953868 0.218444 0.218444 0.218444
6041.598145 0.000000 2170.037842 0.000000 0.290909 0.000000 -0.956751 0.221621 0.221621 0.221621
6038.911621 0.000000 2187.395752 0.000000 0.088954 0.000000 -0.996036 0.223889 0.223889 0.223889
6038.404297 0.000000 2172.021484 0.000000 0.043751 0.000000 -0.999042 0.243334 0.243334 0.243334
6060.614746 0.000000 2195.662842 0.000000 0.193715 0.000000 -0.981058 0.280778 0.280778 0.280778
6063.984863 0.000000 2179.986572 0.000000 0.374999 0.000000 -0.927025 0.256323 0.256323 0.256323
6047.121582 0.000000 2177.666504 0.000000 0.135162 0.000000 -0.990824 0.289970 0.289970 0.289970
6045.463379 0.000000 2172.482178 0.000000 0.336448 0.000000 -0.941702 0.281404 0.281404 0.281404
6058.127930 0.000000 2193.859619 0.000000 0.315217 0.000000 -0.949020 0.265214 0.265214 0.265214
6036.942871 0.000000 2196.013428 0.000000 0.506802 0.000000 -0.862062 0.298955 0.298955 0.298955
6061.039062 0.000000 2183.829590 0.000000 0.291211 0.000000 -0.956659 0.311561 0.311561 0.311561
6021.747070 0.000000 2179.377197 0.000000 0.035922 0.000000 -0.999355 0.283483 0.283483 0.283483
6019.692383 0.000000 2179.707275 0.000000 0.212609 0.000000 -0.977137 0.279245 0.279245 0.279245
6036.037109 0.000000 2186.155029 0.000000 0.522187 0.000000 -0.852831 0.301819 0.301819 0.301819
6047.979004 0.000000 2175.474121 0.000000 0.377654 0.000000 -0.925947 0.304970 0.304970 0.304970
6049.049316 0.000000 2204.140869 0.000000 0.070240 0.000000 -0.997530 0.215846 0.215846 0.215846
6036.029785 0.000000 2206.817383 0.000000 0.117295 0.000000 -0.993097 0.247725 0.247725 0.247725
5900.112305 0.000000 2274.281738 0.000000 0.530762 0.000000 -0.847521 0.206893 0.206893 0.206893
5897.795410 0.000000 2259.399414 0.000000 0.493559 0.000000 -0.869712 0.211335 0.211335 0.211335
5945.072754 0.000000 2309.492188 0.000000 0.151749 0.000000 -0.988419 0.219621 0.219621 0.219621
5939.318359 0.000000 2293.016357 0.000000 0.438413 0.000000 -0.898774 0.216684 0.216684 0.216684
5908.433105 0.000000 2276.389648 0.000000 0.458476 0.000000 -0.888707 0.239849 0.239849 0.239849
5912.230957 0.000000 2274.383789 0.000000 0.437145 0.000000 -0.899391 0.248128 0.248128 0.248128
5950.710938 0.000000 2297.601318 0.000000 0.196146 0.000000 -0.980575 0.325355 0.325355 0.325355
5893.292969 0.000000 2265.392334 0.000000 0.511536 0.000000 -0.859262 0.256516 0.256516 0.256516
5943.038086 0.000000 2307.375000 0.000000 0.501113 0.000000 -0.865382 0.318722 0.318722 0.318722
5956.483887 0.000000 2289.123779 0.000000 0.334302 0.000000 -0.942466 0.221258 0.221258 0.221258
5965.344238 0.000000 2330.149170 0.000000 0.278023 0.000000 -0.960574 0.290530 0.290530 0.290530
6244.682129 0.000000 2000.742432 0.000000 0.448849 0.000000 -0.893608 0.216594 0.216594 0.216594
"}
